<?xml version="1.0" standalone="no"?>
<!DOCTYPE svg PUBLIC "-//W3C//DTD SVG 1.1//EN" "http://www.w3.org/Graphics/SVG/1.1/DTD/svg11.dtd" >
<svg xmlns="http://www.w3.org/2000/svg">
<metadata>Generated by IcoMoon</metadata>
<defs>
<font id="icomoon-cirrus" horiz-adv-x="1024">
<font-face units-per-em="1024" ascent="960" descent="-64" />
<missing-glyph horiz-adv-x="1024" />
<glyph unicode="&#x20;" d="" horiz-adv-x="512" />
<glyph unicode="&#xe011;" d="M768 416v-352h-640v640h352l128 128h-512c-52.8 0-96-43.2-96-96v-704c0-52.8 43.2-96 96-96h704c52.8 0 96 43.2 96 96v512l-128-128zM864 960l-608-608v-160h160l608 608c0 96-64 160-160 160z" />
<glyph unicode="&#xe0d3;" d="M480 896c-265.096 0-480-214.904-480-480 0-265.098 214.904-480 480-480 265.098 0 480 214.902 480 480 0 265.096-214.902 480-480 480zM480 32c-212.078 0-384 171.922-384 384s171.922 384 384 384c212.078 0 384-171.922 384-384s-171.922-384-384-384zM512 448v128h128v64h-128v64h-64v-64h-128v-256h128v-128h-128v-64h128v-64h64v64h128.002l-0.002 256h-128zM448 448h-64v128h64v-128zM576.002 256h-64.002v128h64.002v-128z" />
<glyph unicode="&#xe0d6;" d="M928 832h-832c-52.8 0-96-43.2-96-96v-576c0-52.8 43.2-96 96-96h832c52.8 0 96 43.2 96 96v576c0 52.8-43.2 96-96 96zM192 192h-64v128h64v-128zM320 192h-64v128h64v-128zM448 192h-64v128h64v-128zM992 448h-960v192h960v-192z" />
<glyph unicode="&#xe0ea;" d="M864 896h-704c-17.672 0-32-14.328-32-32v-96h-64c-35.346 0-64-28.654-64-64s28.654-64 64-64h64v-64h-64c-35.346 0-64-28.654-64-64s28.654-64 64-64h64v-64h-64c-35.346 0-64-28.654-64-64s28.654-64 64-64h64v-64h-64c-35.346 0-64-28.654-64-64s28.654-64 64-64h64v-96c0-17.674 14.328-32 32-32h704c52.936 0 96 43.064 96 96v768c0 52.934-43.064 96-96 96zM192 64c35.346 0 64 28.654 64 64s-28.654 64-64 64v64c35.346 0 64 28.654 64 64s-28.654 64-64 64v64c35.346 0 64 28.654 64 64s-28.654 64-64 64v64c35.346 0 64 28.654 64 64s-28.654 64-64 64v64h128v-832h-128v64z" />
<glyph unicode="&#xe117;" d="M608 256h-192c-17.672 0-32-14.326-32-32s14.328-32 32-32h192c17.674 0 32 14.326 32 32s-14.326 32-32 32zM672 128h-320c-17.672 0-32-14.326-32-32s14.328-32 32-32h320c17.674 0 32 14.326 32 32s-14.326 32-32 32zM1018.626 497.75l-128 192c-5.934 8.902-15.926 14.25-26.626 14.25h-96v224c0 17.672-14.326 32-32 32h-448c-17.672 0-32-14.328-32-32v-224h-96c-10.7 0-20.69-5.348-26.626-14.25l-128-192c-3.504-5.256-5.374-11.432-5.374-17.75v-320c0-17.674 14.328-32 32-32h147.602l-49.96-149.88c-3.252-9.758-1.618-20.484 4.398-28.83 6.016-8.344 15.674-13.29 25.96-13.29h704c10.288 0 19.946 4.946 25.958 13.29 6.016 8.346 7.652 19.072 4.398 28.83l-49.96 149.88h147.604c17.674 0 32 14.326 32 32v320c0 6.318-1.868 12.494-5.374 17.75zM320 896h384v-256h-384v256zM204.398 0l106.666 320h401.872l106.666-320h-615.204z" />
<glyph unicode="&#xe257;" d="M218.51 320h229.49v64h128v-64h229.49l218.51 218.51v101.49c0 35.2-28.8 64-64 64h-192l-128 128h-256l-128-128h-192c-35.2 0-64-28.8-64-64v-101.49l218.51-218.51zM410.51 768h202.98l64-64h-330.98l64 64zM832 256h-256v-64h-128v64h-256l-192 192v-384c0-35.2 28.8-64 64-64h896c35.2 0 64 28.8 64 64v384l-192-192z" />
<glyph unicode="&#xe2af;" d="M64 768h896v-128h-896v128zM64 512h896v-128h-896v128zM64 256h896v-128h-896v128z" />
<glyph unicode="&#xe301;" d="M1024 562.95l-353.78 51.408-158.22 320.582-158.216-320.582-353.784-51.408 256-249.538-60.432-352.352 316.432 166.358 316.432-166.358-60.434 352.352 256.002 249.538z" />
<glyph unicode="&#xe3b4;" d="M384 160l288 288-288 288v-576z" />
<glyph unicode="&#xe3b5;" d="M800 320l-288 288-288-288h576z" />
<glyph unicode="&#xe3b6;" d="M224 576l288-288 288 288h-576z" />
<glyph unicode="&#xe600;" d="M170.667 896h682.667q53 0 90.5-37.5t37.5-90.5v-682.667q0-53-37.5-90.5t-90.5-37.5h-682.667q-53 0-90.5 37.5t-37.5 90.5v682.667q0 53 37.5 90.5t90.5 37.5zM853.333 810.667h-682.667q-17.667 0-30.167-12.5t-12.5-30.167v-682.667q0-17.667 12.5-30.167t30.167-12.5h682.667q17.667 0 30.167 12.5t12.5 30.167v682.667q0 17.667-12.5 30.167t-30.167 12.5zM341.333 469.334h341.333q17.667 0 30.167-12.5t12.5-30.167-12.5-30.167-30.167-12.5h-341.333q-17.667 0-30.167 12.5t-12.5 30.167 12.5 30.167 30.167 12.5z" />
<glyph unicode="&#xe601;" d="M170.667 896h682.667q53 0 90.5-37.5t37.5-90.5v-682.667q0-53-37.5-90.5t-90.5-37.5h-682.667q-53 0-90.5 37.5t-37.5 90.5v682.667q0 53 37.5 90.5t90.5 37.5zM853.333 810.667h-682.667q-17.667 0-30.167-12.5t-12.5-30.167v-682.667q0-17.667 12.5-30.167t30.167-12.5h682.667q17.667 0 30.167 12.5t12.5 30.167v682.667q0 17.667-12.5 30.167t-30.167 12.5zM512 640q17.667 0 30.167-12.5t12.5-30.167v-128h128q17.667 0 30.167-12.5t12.5-30.167-12.5-30.167-30.167-12.5h-128v-128q0-17.667-12.5-30.167t-30.167-12.5-30.167 12.5-12.5 30.167v128h-128q-17.667 0-30.167 12.5t-12.5 30.167 12.5 30.167 30.167 12.5h128v128q0 17.667 12.5 30.167t30.167 12.5z" />
<glyph unicode="&#xe602;" d="M300.571 154.286q0-30.286-21.429-51.714t-51.714-21.429q-29.714 0-51.429 21.714t-21.714 51.429q0 30.286 21.429 51.714t51.714 21.429 51.714-21.429 21.429-51.714zM585.143 36.571q0-30.286-21.429-51.714t-51.714-21.429-51.714 21.429-21.429 51.714 21.429 51.714 51.714 21.429 51.714-21.429 21.429-51.714zM182.857 438.857q0-30.286-21.429-51.714t-51.714-21.429-51.714 21.429-21.429 51.714 21.429 51.714 51.714 21.429 51.714-21.429 21.429-51.714zM869.714 154.286q0-29.714-21.714-51.429t-51.429-21.714q-30.286 0-51.714 21.429t-21.429 51.714 21.429 51.714 51.714 21.429 51.714-21.429 21.429-51.714zM318.857 723.428q0-37.714-26.857-64.571t-64.571-26.857-64.571 26.857-26.857 64.571 26.857 64.571 64.571 26.857 64.571-26.857 26.857-64.571zM987.429 438.857q0-30.286-21.429-51.714t-51.714-21.429-51.714 21.429-21.429 51.714 21.429 51.714 51.714 21.429 51.714-21.429 21.429-51.714zM621.714 841.143q0-45.714-32-77.714t-77.714-32-77.714 32-32 77.714 32 77.714 77.714 32 77.714-32 32-77.714zM924.571 723.428q0-53.143-37.714-90.571t-90.286-37.429q-53.143 0-90.571 37.429t-37.429 90.571q0 52.571 37.429 90.286t90.571 37.714q52.571 0 90.286-37.714t37.714-90.286z" />
<glyph unicode="&#xe603;" d="M512 426.667c94.293 0 170.667 76.587 170.667 170.667 0 94.293-76.373 170.667-170.667 170.667s-170.667-76.373-170.667-170.667c0-94.080 76.373-170.667 170.667-170.667zM512 341.334c-113.707 0-341.333-56.96-341.333-170.667v-85.333h682.667v85.333c0 113.707-227.627 170.667-341.333 170.667z" />
<glyph unicode="&#xe944;" d="M304 352c0-114.876 93.124-208 208-208s208 93.124 208 208-93.124 208-208 208-208-93.124-208-208zM960 704h-224c-16 64-32 128-96 128h-256c-64 0-80-64-96-128h-224c-35.2 0-64-28.8-64-64v-576c0-35.2 28.8-64 64-64h896c35.2 0 64 28.8 64 64v576c0 35.2-28.8 64-64 64zM512 68c-156.85 0-284 127.148-284 284 0 156.85 127.15 284 284 284 156.852 0 284-127.15 284-284 0-156.852-127.146-284-284-284zM960 512h-128v64h128v-64z" />
<glyph unicode="&#xe99e;" d="M704 704h232.118c-5.008 8.070-11.036 17-18.312 26.924-22.21 30.292-53.174 65.7-87.178 99.704s-69.412 64.964-99.704 87.178c-9.924 7.276-18.854 13.304-26.924 18.312v-232.118zM640 672v288h-496c-44.112 0-80-35.888-80-80v-864c0-44.112 35.886-80 80-80h736c44.112 0 80 35.888 80 80v624h-288c-17.674 0-32 14.328-32 32z" />
<glyph unicode="&#xe9ee;" d="M976 960h-384c-26.4 0-63.274-15.274-81.942-33.942l-476.116-476.116c-18.668-18.668-18.668-49.214 0-67.882l412.118-412.118c18.668-18.668 49.214-18.668 67.882 0l476.118 476.118c18.666 18.666 33.94 55.54 33.94 81.94v384c0 26.4-21.6 48-48 48zM736 576c-53.020 0-96 42.98-96 96s42.98 96 96 96 96-42.98 96-96-42.98-96-96-96z" />
<glyph unicode="&#xea58;" d="M1024 128c-106.042 0-192 85.96-192 192v285.090c0 140.738-109.942 258.128-256 285.084v69.826h-128v-69.824c-146.064-26.958-256-144.346-256-285.084v-285.092c0-106.040-85.962-192-192-192v-64h429.598c-5.208-11.424-8.11-24.118-8.11-37.49 0-49.986 40.524-90.51 90.512-90.51 49.984 0 90.51 40.524 90.51 90.51 0 13.376-2.902 26.066-8.112 37.49h429.602v64z" />
<glyph unicode="&#xeabe;" d="M262.14 960c-113.728-206.032-132.89-520.304 313.86-509.824v253.824l384-384-384-384v248.372c-534.96-13.942-594.572 472.214-313.86 775.628z" />
<glyph unicode="&#xeb2d;" d="M1024 96l-300.486 300.486c28.384 53.576 44.486 114.66 44.486 179.514 0 212.078-171.922 384-384 384-212.076 0-384-171.922-384-384s171.922-384 384-384c64.854 0 125.938 16.102 179.514 44.486l300.486-300.486 160 160zM128 576c0 141.384 114.616 256 256 256s256-114.616 256-256-114.616-256-256-256-256 114.616-256 256z" />
<glyph unicode="&#xeb4e;" d="M832 512h-64v192c0 141.384-114.616 256-256 256s-256-114.616-256-256v-192h-64c-35.2 0-64-28.8-64-64v-448c0-35.2 28.8-64 64-64h640c35.2 0 64 28.8 64 64v448c0 35.2-28.8 64-64 64zM512 128c-35.346 0-64 28.654-64 64s28.654 64 64 64 64-28.654 64-64-28.654-64-64-64zM640 512h-256v192c0 70.58 57.42 128 128 128s128-57.42 128-128v-192z" />
<glyph unicode="&#xeb5c;" d="M933.79 349.75c-53.726 93.054-21.416 212.304 72.152 266.488l-100.626 174.292c-28.75-16.854-62.176-26.518-97.846-26.518-107.536 0-194.708 87.746-194.708 195.99h-201.258c0.266-33.41-8.074-67.282-25.958-98.252-53.724-93.056-173.156-124.702-266.862-70.758l-100.624-174.292c28.97-16.472 54.050-40.588 71.886-71.478 53.638-92.908 21.512-211.92-71.708-266.224l100.626-174.292c28.65 16.696 61.916 26.254 97.4 26.254 107.196 0 194.144-87.192 194.7-194.958h201.254c-0.086 33.074 8.272 66.57 25.966 97.218 53.636 92.906 172.776 124.594 266.414 71.012l100.626 174.29c-28.78 16.466-53.692 40.498-71.434 71.228zM512 240.668c-114.508 0-207.336 92.824-207.336 207.334 0 114.508 92.826 207.334 207.336 207.334 114.508 0 207.332-92.826 207.332-207.334-0.002-114.51-92.824-207.334-207.332-207.334z" />
<glyph unicode="&#xebfb;" d="M192-64h640l64 704h-768zM640 832v128h-256v-128h-320v-192l64 64h768l64-64v192h-320zM576 832h-128v64h128v-64z" />
<glyph unicode="&#xec93;" d="M512 960c-282.77 0-512-229.23-512-512s229.23-512 512-512 512 229.23 512 512-229.23 512-512 512zM512-0.002c-62.958 0-122.872 13.012-177.23 36.452l233.148 262.29c5.206 5.858 8.082 13.422 8.082 21.26v96c0 17.674-14.326 32-32 32-112.99 0-232.204 117.462-233.374 118.626-6 6.002-14.14 9.374-22.626 9.374h-128c-17.672 0-32-14.328-32-32v-192c0-12.122 6.848-23.202 17.69-28.622l110.31-55.156v-187.886c-116.052 80.956-192 215.432-192 367.664 0 68.714 15.49 133.806 43.138 192h116.862c8.488 0 16.626 3.372 22.628 9.372l128 128c6 6.002 9.372 14.14 9.372 22.628v77.412c40.562 12.074 83.518 18.588 128 18.588 70.406 0 137.004-16.26 196.282-45.2-4.144-3.502-8.176-7.164-12.046-11.036-36.266-36.264-56.236-84.478-56.236-135.764s19.97-99.5 56.236-135.764c36.434-36.432 85.218-56.264 135.634-56.26 3.166 0 6.342 0.080 9.518 0.236 13.814-51.802 38.752-186.656-8.404-372.334-0.444-1.744-0.696-3.488-0.842-5.224-81.324-83.080-194.7-134.656-320.142-134.656z" />
<glyph unicode="&#xeca5;" d="M508.118 837.954c-96.356 114.5-169.38 122.046-316.118 122.046v-512c256.534 128 285.272-16.67 447.012-2.046 159.456 14.44 295.050 137.174 384.988 258.046-254.712-58.906-382.92-24.046-515.882 133.954zM0 960h128v-1024h-128z" />
<glyph unicode="&#xece0;" d="M1024 562.95l-353.78 51.408-158.22 320.582-158.216-320.582-353.784-51.408 256-249.538-60.432-352.352 316.432 166.358 316.432-166.358-60.434 352.352 256.002 249.538zM512 206.502l-223.462-117.48 42.676 248.83-180.786 176.222 249.84 36.304 111.732 226.396 111.736-226.396 249.836-36.304-180.788-176.222 42.678-248.83-223.462 117.48z" />
<glyph unicode="&#xed4d;" d="M1009.956 44.24v0l-437.074 871.112c-16.742 29.766-38.812 44.648-60.882 44.648s-44.14-14.882-60.884-44.648l-437.074-871.112c-33.486-59.532-5-108.24 63.304-108.24h869.308c68.302 0 96.792 48.708 63.302 108.24zM512 64c-35.346 0-64 28.654-64 64s28.654 64 64 64c35.348 0 64-28.652 64-64s-28.652-64-64-64zM576 320c0-35.346-28.654-64-64-64s-64 28.654-64 64v192c0 35.346 28.654 64 64 64s64-28.654 64-64v-192z" />
<glyph unicode="&#xed53;" d="M512 960c-282.77 0-512-229.23-512-512s229.23-512 512-512 512 229.23 512 512-229.23 512-512 512zM512 128c-35.346 0-64 28.654-64 64s28.654 64 64 64 64-28.654 64-64-28.654-64-64-64zM617.538 455.842c-39.112-24.57-57.538-38.114-57.538-56.092v-32c0-26.51-21.49-48-48-48s-48 21.49-48 48v32c0 33.618 12.964 63.854 38.532 89.87 18.864 19.194 41.778 33.59 63.936 47.512 45.564 28.624 65.532 43.978 65.532 70.868 0 29.252-16.88 48.788-31.042 60.026-22.734 18.040-54.328 27.974-88.958 27.974-52.534 0-99.792-35.082-114.924-85.314-7.648-25.382-34.422-39.758-59.806-32.114-25.382 7.648-39.76 34.422-32.114 59.806 13.112 43.52 40.398 82.63 76.832 110.124 37.71 28.456 82.668 43.498 130.012 43.498 56.208 0 108.994-17.322 148.63-48.776 43.444-34.474 67.37-82.496 67.37-135.224 0-82.76-63.846-122.872-110.462-152.158z" />
<glyph unicode="&#xed5e;" d="M512 960c-282.77 0-512-229.23-512-512s229.23-512 512-512 512 229.23 512 512-229.23 512-512 512zM576 384v-256h-128v256h-256v128h256v256h128v-256h256v-128h-256z" />
<glyph unicode="&#xed5f;" d="M512 960c-282.77 0-512-229.23-512-512s229.23-512 512-512 512 229.23 512 512-229.23 512-512 512zM832 384h-640v128h640v-128z" />
<glyph unicode="&#xed61;" d="M512 960c-282.77 0-512-229.23-512-512s229.23-512 512-512 512 229.23 512 512-229.23 512-512 512zM448 720c0 26.4 21.6 48 48 48h32c26.4 0 48-21.6 48-48v-32c0-26.4-21.6-48-48-48h-32c-26.4 0-48 21.6-48 48v32zM640 128h-256v64h64v256h-64v64h192v-320h64v-64z" />
<glyph unicode="&#xed63;" d="M512 960c-282.77 0-512-229.23-512-512s229.23-512 512-512 512 229.23 512 512-229.23 512-512 512zM768 288l-96-96-160 160-160-160-96 96 160 160-160 160 96 96 160-160 160 160 96-96-160-160 160-160z" />
<glyph unicode="&#xed64;" d="M874.040 810.040c-96.706 96.702-225.28 149.96-362.040 149.96s-265.334-53.258-362.040-149.96c-96.702-96.706-149.96-225.28-149.96-362.040s53.258-265.334 149.96-362.040c96.706-96.702 225.28-149.96 362.040-149.96s265.334 53.258 362.040 149.96c96.702 96.706 149.96 225.28 149.96 362.040s-53.258 265.334-149.96 362.040zM896 448c0-82.814-26.354-159.588-71.112-222.38l-535.266 535.268c62.792 44.758 139.564 71.112 222.378 71.112 211.738 0 384-172.262 384-384zM128 448c0 82.814 26.354 159.586 71.112 222.378l535.27-535.268c-62.794-44.756-139.568-71.11-222.382-71.11-211.738 0-384 172.262-384 384z" />
<glyph unicode="&#xedba;" d="M352 960l-96-96 416-416-416-416 96-96 512 511.998-512 512.002z" />
<glyph unicode="&#xedc2;" d="M672-64l96 96-416 416 416 416-96 96-512-511.998 512-512.002z" />
<glyph unicode="&#xedc9;" d="M512 928l-480-480h288v-512h384v512h288z" />
<glyph unicode="&#xedcd;" d="M512-32l480 480h-288v512h-384v-512h-288z" />
<glyph unicode="&#xee38;" d="M768 512l-256 256-256-256zM256 320l256-256 256 256z" />
<glyph unicode="&#xee73;" d="M512 960c-282.77 0-512-229.23-512-512s229.23-512 512-512 512 229.23 512 512-229.23 512-512 512zM416 190l-180 214 66 66 114-112 330 288 46-46-376-410z" />
<glyph unicode="&#xee75;" d="M0 448c0 282.77 229.23 512 512 512s512-229.23 512-512c0-282.77-229.23-512-512-512s-512 229.23-512 512z" />
<glyph unicode="&#xeec5;" d="M256 320c0 0 58.824 192 384 192v-192l384 256-384 256v-192c-256 0-384-159.672-384-320zM704 192h-576v384h125.876c10.094 11.918 20.912 23.334 32.488 34.18 43.964 41.19 96.562 72.652 156.114 93.82h-442.478v-640h832v268.624l-128-85.334v-55.29z" />
<glyph unicode="" d="M256 320c0 0 58.824 192 384 192v-192l384 256-384 256v-192c-256 0-384-159.672-384-320zM704 192h-576v384h125.876c10.094 11.918 20.912 23.334 32.488 34.18 43.964 41.19 96.562 72.652 156.114 93.82h-442.478v-640h832v268.624l-128-85.334v-55.29z" />
<glyph unicode="warning2" d="M1009.956 44.24v0l-437.074 871.112c-16.742 29.766-38.812 44.648-60.882 44.648s-44.14-14.882-60.884-44.648l-437.074-871.112c-33.486-59.532-5-108.24 63.304-108.24h869.308c68.302 0 96.792 48.708 63.302 108.24zM512 64c-35.346 0-64 28.654-64 64s28.654 64 64 64c35.348 0 64-28.652 64-64s-28.652-64-64-64zM576 320c0-35.346-28.654-64-64-64s-64 28.654-64 64v192c0 35.346 28.654 64 64 64s64-28.654 64-64v-192z" />
<glyph unicode="up6" d="M512 928l-480-480h288v-512h384v512h288z" />
<glyph unicode="trashcan2" d="M192-64h640l64 704h-768zM640 832v128h-256v-128h-320v-192l64 64h768l64-64v192h-320zM576 832h-128v64h128v-64z" />
<glyph unicode="star-empty3" d="M1024 562.95l-353.78 51.408-158.22 320.582-158.216-320.582-353.784-51.408 256-249.538-60.432-352.352 316.432 166.358 316.432-166.358-60.434 352.352 256.002 249.538zM512 206.502l-223.462-117.48 42.676 248.83-180.786 176.222 249.84 36.304 111.732 226.396 111.736-226.396 249.836-36.304-180.788-176.222 42.678-248.83-223.462 117.48z" />
<glyph unicode="sign2" d="M1009.956 44.24v0l-437.074 871.112c-16.742 29.766-38.812 44.648-60.882 44.648s-44.14-14.882-60.884-44.648l-437.074-871.112c-33.486-59.532-5-108.24 63.304-108.24h869.308c68.302 0 96.792 48.708 63.302 108.24zM512 64c-35.346 0-64 28.654-64 64s28.654 64 64 64c35.348 0 64-28.652 64-64s-28.652-64-64-64zM576 320c0-35.346-28.654-64-64-64s-64 28.654-64 64v192c0 35.346 28.654 64 64 64s64-28.654 64-64v-192z" />
<glyph unicode="share2" d="M256 320c0 0 58.824 192 384 192v-192l384 256-384 256v-192c-256 0-384-159.672-384-320zM704 192h-576v384h125.876c10.094 11.918 20.912 23.334 32.488 34.18 43.964 41.19 96.562 72.652 156.114 93.82h-442.478v-640h832v268.624l-128-85.334v-55.29z" />
<glyph unicode="secure2" d="M832 512h-64v192c0 141.384-114.616 256-256 256s-256-114.616-256-256v-192h-64c-35.2 0-64-28.8-64-64v-448c0-35.2 28.8-64 64-64h640c35.2 0 64 28.8 64 64v448c0 35.2-28.8 64-64 64zM512 128c-35.346 0-64 28.654-64 64s28.654 64 64 64 64-28.654 64-64-28.654-64-64-64zM640 512h-256v192c0 70.58 57.42 128 128 128s128-57.42 128-128v-192z" />
<glyph unicode="right5" d="M352 960l-96-96 416-416-416-416 96-96 512 511.998-512 512.002z" />
<glyph unicode="right2" d="M262.14 960c-113.728-206.032-132.89-520.304 313.86-509.824v253.824l384-384-384-384v248.372c-534.96-13.942-594.572 472.214-313.86 775.628z" />
<glyph unicode="report5" d="M508.118 837.954c-96.356 114.5-169.38 122.046-316.118 122.046v-512c256.534 128 285.272-16.67 447.012-2.046 159.456 14.44 295.050 137.174 384.988 258.046-254.712-58.906-382.92-24.046-515.882 133.954zM0 960h128v-1024h-128z" />
<glyph unicode="remove2" d="M512 960c-282.77 0-512-229.23-512-512s229.23-512 512-512 512 229.23 512 512-229.23 512-512 512zM832 384h-640v128h640v-128z" />
<glyph unicode="rate4" d="M1024 562.95l-353.78 51.408-158.22 320.582-158.216-320.582-353.784-51.408 256-249.538-60.432-352.352 316.432 166.358 316.432-166.358-60.434 352.352 256.002 249.538zM512 206.502l-223.462-117.48 42.676 248.83-180.786 176.222 249.84 36.304 111.732 226.396 111.736-226.396 249.836-36.304-180.788-176.222 42.678-248.83-223.462 117.48z" />
<glyph unicode="question4" d="M512 960c-282.77 0-512-229.23-512-512s229.23-512 512-512 512 229.23 512 512-229.23 512-512 512zM512 128c-35.346 0-64 28.654-64 64s28.654 64 64 64 64-28.654 64-64-28.654-64-64-64zM617.538 455.842c-39.112-24.57-57.538-38.114-57.538-56.092v-32c0-26.51-21.49-48-48-48s-48 21.49-48 48v32c0 33.618 12.964 63.854 38.532 89.87 18.864 19.194 41.778 33.59 63.936 47.512 45.564 28.624 65.532 43.978 65.532 70.868 0 29.252-16.88 48.788-31.042 60.026-22.734 18.040-54.328 27.974-88.958 27.974-52.534 0-99.792-35.082-114.924-85.314-7.648-25.382-34.422-39.758-59.806-32.114-25.382 7.648-39.76 34.422-32.114 59.806 13.112 43.52 40.398 82.63 76.832 110.124 37.71 28.456 82.668 43.498 130.012 43.498 56.208 0 108.994-17.322 148.63-48.776 43.444-34.474 67.37-82.496 67.37-135.224 0-82.76-63.846-122.872-110.462-152.158z" />
<glyph unicode="price-tag2" d="M976 960h-384c-26.4 0-63.274-15.274-81.942-33.942l-476.116-476.116c-18.668-18.668-18.668-49.214 0-67.882l412.118-412.118c18.668-18.668 49.214-18.668 67.882 0l476.118 476.118c18.666 18.666 33.94 55.54 33.94 81.94v384c0 26.4-21.6 48-48 48zM736 576c-53.020 0-96 42.98-96 96s42.98 96 96 96 96-42.98 96-96-42.98-96-96-96z" />
<glyph unicode="plus-circle2" d="M512 960c-282.77 0-512-229.23-512-512s229.23-512 512-512 512 229.23 512 512-229.23 512-512 512zM576 384v-256h-128v256h-256v128h256v256h128v-256h256v-128h-256z" />
<glyph unicode="photo" d="M304 352c0-114.876 93.124-208 208-208s208 93.124 208 208-93.124 208-208 208-208-93.124-208-208zM960 704h-224c-16 64-32 128-96 128h-256c-64 0-80-64-96-128h-224c-35.2 0-64-28.8-64-64v-576c0-35.2 28.8-64 64-64h896c35.2 0 64 28.8 64 64v576c0 35.2-28.8 64-64 64zM512 68c-156.85 0-284 127.148-284 284 0 156.85 127.15 284 284 284 156.852 0 284-127.15 284-284 0-156.852-127.146-284-284-284zM960 512h-128v64h128v-64z" />
<glyph unicode="out2" d="M256 320c0 0 58.824 192 384 192v-192l384 256-384 256v-192c-256 0-384-159.672-384-320zM704 192h-576v384h125.876c10.094 11.918 20.912 23.334 32.488 34.18 43.964 41.19 96.562 72.652 156.114 93.82h-442.478v-640h832v268.624l-128-85.334v-55.29z" />
<glyph unicode="minus-circle2" d="M512 960c-282.77 0-512-229.23-512-512s229.23-512 512-512 512 229.23 512 512-229.23 512-512 512zM832 384h-640v128h640v-128z" />
<glyph unicode="menu-open" d="M768 512l-256 256-256-256zM256 320l256-256 256 256z" />
<glyph unicode="lock2" d="M832 512h-64v192c0 141.384-114.616 256-256 256s-256-114.616-256-256v-192h-64c-35.2 0-64-28.8-64-64v-448c0-35.2 28.8-64 64-64h640c35.2 0 64 28.8 64 64v448c0 35.2-28.8 64-64 64zM512 128c-35.346 0-64 28.654-64 64s28.654 64 64 64 64-28.654 64-64-28.654-64-64-64zM640 512h-256v192c0 70.58 57.42 128 128 128s128-57.42 128-128v-192z" />
<glyph unicode="left6" d="M672-64l96 96-416 416 416 416-96 96-512-511.998 512-512.002z" />
<glyph unicode="information2" d="M512 960c-282.77 0-512-229.23-512-512s229.23-512 512-512 512 229.23 512 512-229.23 512-512 512zM448 720c0 26.4 21.6 48 48 48h32c26.4 0 48-21.6 48-48v-32c0-26.4-21.6-48-48-48h-32c-26.4 0-48 21.6-48 48v32zM640 128h-256v64h64v256h-64v64h192v-320h64v-64z" />
<glyph unicode="info2" d="M512 960c-282.77 0-512-229.23-512-512s229.23-512 512-512 512 229.23 512 512-229.23 512-512 512zM448 720c0 26.4 21.6 48 48 48h32c26.4 0 48-21.6 48-48v-32c0-26.4-21.6-48-48-48h-32c-26.4 0-48 21.6-48 48v32zM640 128h-256v64h64v256h-64v64h192v-320h64v-64z" />
<glyph unicode="help4" d="M512 960c-282.77 0-512-229.23-512-512s229.23-512 512-512 512 229.23 512 512-229.23 512-512 512zM512 128c-35.346 0-64 28.654-64 64s28.654 64 64 64 64-28.654 64-64-28.654-64-64-64zM617.538 455.842c-39.112-24.57-57.538-38.114-57.538-56.092v-32c0-26.51-21.49-48-48-48s-48 21.49-48 48v32c0 33.618 12.964 63.854 38.532 89.87 18.864 19.194 41.778 33.59 63.936 47.512 45.564 28.624 65.532 43.978 65.532 70.868 0 29.252-16.88 48.788-31.042 60.026-22.734 18.040-54.328 27.974-88.958 27.974-52.534 0-99.792-35.082-114.924-85.314-7.648-25.382-34.422-39.758-59.806-32.114-25.382 7.648-39.76 34.422-32.114 59.806 13.112 43.52 40.398 82.63 76.832 110.124 37.71 28.456 82.668 43.498 130.012 43.498 56.208 0 108.994-17.322 148.63-48.776 43.444-34.474 67.37-82.496 67.37-135.224 0-82.76-63.846-122.872-110.462-152.158z" />
<glyph unicode="globe6" d="M512 960c-282.77 0-512-229.23-512-512s229.23-512 512-512 512 229.23 512 512-229.23 512-512 512zM512-0.002c-62.958 0-122.872 13.012-177.23 36.452l233.148 262.29c5.206 5.858 8.082 13.422 8.082 21.26v96c0 17.674-14.326 32-32 32-112.99 0-232.204 117.462-233.374 118.626-6 6.002-14.14 9.374-22.626 9.374h-128c-17.672 0-32-14.328-32-32v-192c0-12.122 6.848-23.202 17.69-28.622l110.31-55.156v-187.886c-116.052 80.956-192 215.432-192 367.664 0 68.714 15.49 133.806 43.138 192h116.862c8.488 0 16.626 3.372 22.628 9.372l128 128c6 6.002 9.372 14.14 9.372 22.628v77.412c40.562 12.074 83.518 18.588 128 18.588 70.406 0 137.004-16.26 196.282-45.2-4.144-3.502-8.176-7.164-12.046-11.036-36.266-36.264-56.236-84.478-56.236-135.764s19.97-99.5 56.236-135.764c36.434-36.432 85.218-56.264 135.634-56.26 3.166 0 6.342 0.080 9.518 0.236 13.814-51.802 38.752-186.656-8.404-372.334-0.444-1.744-0.696-3.488-0.842-5.224-81.324-83.080-194.7-134.656-320.142-134.656z" />
<glyph unicode="gear" d="M933.79 349.75c-53.726 93.054-21.416 212.304 72.152 266.488l-100.626 174.292c-28.75-16.854-62.176-26.518-97.846-26.518-107.536 0-194.708 87.746-194.708 195.99h-201.258c0.266-33.41-8.074-67.282-25.958-98.252-53.724-93.056-173.156-124.702-266.862-70.758l-100.624-174.292c28.97-16.472 54.050-40.588 71.886-71.478 53.638-92.908 21.512-211.92-71.708-266.224l100.626-174.292c28.65 16.696 61.916 26.254 97.4 26.254 107.196 0 194.144-87.192 194.7-194.958h201.254c-0.086 33.074 8.272 66.57 25.966 97.218 53.636 92.906 172.776 124.594 266.414 71.012l100.626 174.29c-28.78 16.466-53.692 40.498-71.434 71.228zM512 240.668c-114.508 0-207.336 92.824-207.336 207.334 0 114.508 92.826 207.334 207.336 207.334 114.508 0 207.332-92.826 207.332-207.334-0.002-114.51-92.824-207.334-207.332-207.334z" />
<glyph unicode="forward" d="M262.14 960c-113.728-206.032-132.89-520.304 313.86-509.824v253.824l384-384-384-384v248.372c-534.96-13.942-594.572 472.214-313.86 775.628z" />
<glyph unicode="forbidden" d="M874.040 810.040c-96.706 96.702-225.28 149.96-362.040 149.96s-265.334-53.258-362.040-149.96c-96.702-96.706-149.96-225.28-149.96-362.040s53.258-265.334 149.96-362.040c96.706-96.702 225.28-149.96 362.040-149.96s265.334 53.258 362.040 149.96c96.702 96.706 149.96 225.28 149.96 362.040s-53.258 265.334-149.96 362.040zM896 448c0-82.814-26.354-159.588-71.112-222.38l-535.266 535.268c62.792 44.758 139.564 71.112 222.378 71.112 211.738 0 384-172.262 384-384zM128 448c0 82.814 26.354 159.586 71.112 222.378l535.27-535.268c-62.794-44.756-139.568-71.11-222.382-71.11-211.738 0-384 172.262-384 384z" />
<glyph unicode="flag5" d="M508.118 837.954c-96.356 114.5-169.38 122.046-316.118 122.046v-512c256.534 128 285.272-16.67 447.012-2.046 159.456 14.44 295.050 137.174 384.988 258.046-254.712-58.906-382.92-24.046-515.882 133.954zM0 960h128v-1024h-128z" />
<glyph unicode="file4" d="M704 704h232.118c-5.008 8.070-11.036 17-18.312 26.924-22.21 30.292-53.174 65.7-87.178 99.704s-69.412 64.964-99.704 87.178c-9.924 7.276-18.854 13.304-26.924 18.312v-232.118zM640 672v288h-496c-44.112 0-80-35.888-80-80v-864c0-44.112 35.886-80 80-80h736c44.112 0 80 35.888 80 80v624h-288c-17.674 0-32 14.328-32 32z" />
<glyph unicode="file-empty2" d="M704 704h232.118c-5.008 8.070-11.036 17-18.312 26.924-22.21 30.292-53.174 65.7-87.178 99.704s-69.412 64.964-99.704 87.178c-9.924 7.276-18.854 13.304-26.924 18.312v-232.118zM640 672v288h-496c-44.112 0-80-35.888-80-80v-864c0-44.112 35.886-80 80-80h736c44.112 0 80 35.888 80 80v624h-288c-17.674 0-32 14.328-32 32z" />
<glyph unicode="earth" d="M512 960c-282.77 0-512-229.23-512-512s229.23-512 512-512 512 229.23 512 512-229.23 512-512 512zM512-0.002c-62.958 0-122.872 13.012-177.23 36.452l233.148 262.29c5.206 5.858 8.082 13.422 8.082 21.26v96c0 17.674-14.326 32-32 32-112.99 0-232.204 117.462-233.374 118.626-6 6.002-14.14 9.374-22.626 9.374h-128c-17.672 0-32-14.328-32-32v-192c0-12.122 6.848-23.202 17.69-28.622l110.31-55.156v-187.886c-116.052 80.956-192 215.432-192 367.664 0 68.714 15.49 133.806 43.138 192h116.862c8.488 0 16.626 3.372 22.628 9.372l128 128c6 6.002 9.372 14.14 9.372 22.628v77.412c40.562 12.074 83.518 18.588 128 18.588 70.406 0 137.004-16.26 196.282-45.2-4.144-3.502-8.176-7.164-12.046-11.036-36.266-36.264-56.236-84.478-56.236-135.764s19.97-99.5 56.236-135.764c36.434-36.432 85.218-56.264 135.634-56.26 3.166 0 6.342 0.080 9.518 0.236 13.814-51.802 38.752-186.656-8.404-372.334-0.444-1.744-0.696-3.488-0.842-5.224-81.324-83.080-194.7-134.656-320.142-134.656z" />
<glyph unicode="down6" d="M512-32l480 480h-288v512h-384v-512h-288z" />
<glyph unicode="cog" d="M933.79 349.75c-53.726 93.054-21.416 212.304 72.152 266.488l-100.626 174.292c-28.75-16.854-62.176-26.518-97.846-26.518-107.536 0-194.708 87.746-194.708 195.99h-201.258c0.266-33.41-8.074-67.282-25.958-98.252-53.724-93.056-173.156-124.702-266.862-70.758l-100.624-174.292c28.97-16.472 54.050-40.588 71.886-71.478 53.638-92.908 21.512-211.92-71.708-266.224l100.626-174.292c28.65 16.696 61.916 26.254 97.4 26.254 107.196 0 194.144-87.192 194.7-194.958h201.254c-0.086 33.074 8.272 66.57 25.966 97.218 53.636 92.906 172.776 124.594 266.414 71.012l100.626 174.29c-28.78 16.466-53.692 40.498-71.434 71.228zM512 240.668c-114.508 0-207.336 92.824-207.336 207.334 0 114.508 92.826 207.334 207.336 207.334 114.508 0 207.332-92.826 207.332-207.334-0.002-114.51-92.824-207.334-207.332-207.334z" />
<glyph unicode="close2" d="M512 960c-282.77 0-512-229.23-512-512s229.23-512 512-512 512 229.23 512 512-229.23 512-512 512zM768 288l-96-96-160 160-160-160-96 96 160 160-160 160 96 96 160-160 160 160 96-96-160-160 160-160z" />
<glyph unicode="circle2" d="M0 448c0 282.77 229.23 512 512 512s512-229.23 512-512c0-282.77-229.23-512-512-512s-512 229.23-512 512z" />
<glyph unicode="checkmark-circle" d="M512 960c-282.77 0-512-229.23-512-512s229.23-512 512-512 512 229.23 512 512-229.23 512-512 512zM416 190l-180 214 66 66 114-112 330 288 46-46-376-410z" />
<glyph unicode="cancel-circle2" d="M512 960c-282.77 0-512-229.23-512-512s229.23-512 512-512 512 229.23 512 512-229.23 512-512 512zM768 288l-96-96-160 160-160-160-96 96 160 160-160 160 96 96 160-160 160 160 96-96-160-160 160-160z" />
<glyph unicode="camera" d="M304 352c0-114.876 93.124-208 208-208s208 93.124 208 208-93.124 208-208 208-208-93.124-208-208zM960 704h-224c-16 64-32 128-96 128h-256c-64 0-80-64-96-128h-224c-35.2 0-64-28.8-64-64v-576c0-35.2 28.8-64 64-64h896c35.2 0 64 28.8 64 64v576c0 35.2-28.8 64-64 64zM512 68c-156.85 0-284 127.148-284 284 0 156.85 127.15 284 284 284 156.852 0 284-127.15 284-284 0-156.852-127.146-284-284-284zM960 512h-128v64h128v-64z" />
<glyph unicode="blocked" d="M874.040 810.040c-96.706 96.702-225.28 149.96-362.040 149.96s-265.334-53.258-362.040-149.96c-96.702-96.706-149.96-225.28-149.96-362.040s53.258-265.334 149.96-362.040c96.706-96.702 225.28-149.96 362.040-149.96s265.334 53.258 362.040 149.96c96.702 96.706 149.96 225.28 149.96 362.040s-53.258 265.334-149.96 362.040zM896 448c0-82.814-26.354-159.588-71.112-222.38l-535.266 535.268c62.792 44.758 139.564 71.112 222.378 71.112 211.738 0 384-172.262 384-384zM128 448c0 82.814 26.354 159.586 71.112 222.378l535.27-535.268c-62.794-44.756-139.568-71.11-222.382-71.11-211.738 0-384 172.262-384 384z" />
<glyph unicode="bin2" d="M192-64h640l64 704h-768zM640 832v128h-256v-128h-320v-192l64 64h768l64-64v192h-320zM576 832h-128v64h128v-64z" />
<glyph unicode="bell2" d="M1024 128c-106.042 0-192 85.96-192 192v285.090c0 140.738-109.942 258.128-256 285.084v69.826h-128v-69.824c-146.064-26.958-256-144.346-256-285.084v-285.092c0-106.040-85.962-192-192-192v-64h429.598c-5.208-11.424-8.11-24.118-8.11-37.49 0-49.986 40.524-90.51 90.512-90.51 49.984 0 90.51 40.524 90.51 90.51 0 13.376-2.902 26.066-8.112 37.49h429.602v64z" />
<glyph unicode="arrows3" d="M768 512l-256 256-256-256zM256 320l256-256 256 256z" />
<glyph unicode="arrow-up6" d="M512 928l-480-480h288v-512h384v512h288z" />
<glyph unicode="arrow-right3" d="M352 960l-96-96 416-416-416-416 96-96 512 511.998-512 512.002z" />
<glyph unicode="arrow-left3" d="M672-64l96 96-416 416 416 416-96 96-512-511.998 512-512.002z" />
<glyph unicode="arrow-down6" d="M512-32l480 480h-288v512h-384v-512h-288z" />
<glyph unicode="alarm6" d="M1024 128c-106.042 0-192 85.96-192 192v285.090c0 140.738-109.942 258.128-256 285.084v69.826h-128v-69.824c-146.064-26.958-256-144.346-256-285.084v-285.092c0-106.040-85.962-192-192-192v-64h429.598c-5.208-11.424-8.11-24.118-8.11-37.49 0-49.986 40.524-90.51 90.512-90.51 49.984 0 90.51 40.524 90.51 90.51 0 13.376-2.902 26.066-8.112 37.49h429.602v64z" />
<glyph unicode="add5" d="M512 960c-282.77 0-512-229.23-512-512s229.23-512 512-512 512 229.23 512 512-229.23 512-512 512zM576 384v-256h-128v256h-256v128h256v256h128v-256h256v-128h-256z" />
</font></defs></svg>